Files/app_tb.vcd
$date
	Mon Sep 16 13:56:33 2019
$end
$version
	Icarus Verilog
$end
$timescale
	1s
$end
$scope module app_tb $end
$scope module app $end
$var wire 1 ! Href $end
$var wire 1 " PCLK $end
$var wire 1 # RAM_flag $end
$var wire 1 $ VSYNC $end
$var wire 7 % addr_read0 [6:0] $end
$var wire 7 & addr_read1 [6:0] $end
$var wire 7 ' addr_read10 [6:0] $end
$var wire 7 ( addr_read11 [6:0] $end
$var wire 7 ) addr_read2 [6:0] $end
$var wire 7 * addr_read3 [6:0] $end
$var wire 7 + addr_read4 [6:0] $end
$var wire 7 , addr_read5 [6:0] $end
$var wire 7 - addr_read6 [6:0] $end
$var wire 7 . addr_read7 [6:0] $end
$var wire 7 / addr_read8 [6:0] $end
$var wire 7 0 addr_read9 [6:0] $end
$var wire 7 1 addr_write0 [6:0] $end
$var wire 7 2 addr_write1 [6:0] $end
$var wire 7 3 addr_write10 [6:0] $end
$var wire 7 4 addr_write11 [6:0] $end
$var wire 7 5 addr_write2 [6:0] $end
$var wire 7 6 addr_write3 [6:0] $end
$var wire 7 7 addr_write4 [6:0] $end
$var wire 7 8 addr_write5 [6:0] $end
$var wire 7 9 addr_write6 [6:0] $end
$var wire 7 : addr_write7 [6:0] $end
$var wire 7 ; addr_write8 [6:0] $end
$var wire 7 < addr_write9 [6:0] $end
$var wire 1 = clk $end
$var wire 1 > clk_ext $end
$var wire 8 ? in_pixel [7:0] $end
$var wire 1 @ mask_flag $end
$var wire 4 A order [3:0] $end
$var wire 8 B out [7:0] $end
$var wire 12 C out_rw [11:0] $end
$var wire 8 D p0 [7:0] $end
$var wire 8 E p1 [7:0] $end
$var wire 8 F p2 [7:0] $end
$var wire 8 G p3 [7:0] $end
$var wire 8 H p5 [7:0] $end
$var wire 8 I p6 [7:0] $end
$var wire 8 J p7 [7:0] $end
$var wire 8 K p8 [7:0] $end
$var wire 8 L r0 [7:0] $end
$var wire 8 M r1 [7:0] $end
$var wire 8 N r10 [7:0] $end
$var wire 8 O r11 [7:0] $end
$var wire 8 P r2 [7:0] $end
$var wire 8 Q r3 [7:0] $end
$var wire 8 R r4 [7:0] $end
$var wire 8 S r5 [7:0] $end
$var wire 8 T r6 [7:0] $end
$var wire 8 U r7 [7:0] $end
$var wire 8 V r8 [7:0] $end
$var wire 8 W r9 [7:0] $end
$var wire 8 X ro0 [7:0] $end
$var wire 8 Y ro1 [7:0] $end
$var wire 8 Z ro10 [7:0] $end
$var wire 8 [ ro11 [7:0] $end
$var wire 8 \ ro2 [7:0] $end
$var wire 8 ] ro3 [7:0] $end
$var wire 8 ^ ro4 [7:0] $end
$var wire 8 _ ro5 [7:0] $end
$var wire 8 ` ro6 [7:0] $end
$var wire 8 a ro7 [7:0] $end
$var wire 8 b ro8 [7:0] $end
$var wire 8 c ro9 [7:0] $end
$var wire 1 d rst_hw $end
$var wire 1 e sobel_pulse $end
$var wire 1 f tx $end
$var reg 1 g PCLK_ant $end
$var reg 1 h dtr_ant $end
$var reg 1 i par $end
$var reg 1 j pixel_luminancia $end
$var reg 1 k rst $end
$scope module control_RAM $end
$var wire 1 ! Href $end
$var wire 1 l PCLK $end
$var wire 1 # RAM_flag $end
$var wire 1 $ VSYNC $end
$var wire 7 m addr_read0 [6:0] $end
$var wire 7 n addr_read1 [6:0] $end
$var wire 7 o addr_read10 [6:0] $end
$var wire 7 p addr_read11 [6:0] $end
$var wire 7 q addr_read2 [6:0] $end
$var wire 7 r addr_read3 [6:0] $end
$var wire 7 s addr_read4 [6:0] $end
$var wire 7 t addr_read5 [6:0] $end
$var wire 7 u addr_read6 [6:0] $end
$var wire 7 v addr_read7 [6:0] $end
$var wire 7 w addr_read8 [6:0] $end
$var wire 7 x addr_read9 [6:0] $end
$var wire 7 y addr_write0 [6:0] $end
$var wire 7 z addr_write1 [6:0] $end
$var wire 7 { addr_write10 [6:0] $end
$var wire 7 | addr_write11 [6:0] $end
$var wire 7 } addr_write2 [6:0] $end
$var wire 7 ~ addr_write3 [6:0] $end
$var wire 7 !" addr_write4 [6:0] $end
$var wire 7 "" addr_write5 [6:0] $end
$var wire 7 #" addr_write6 [6:0] $end
$var wire 7 $" addr_write7 [6:0] $end
$var wire 7 %" addr_write8 [6:0] $end
$var wire 7 &" addr_write9 [6:0] $end
$var wire 1 = clk $end
$var wire 8 '" in_pixel [7:0] $end
$var wire 12 (" out_rw [11:0] $end
$var wire 8 )" r0 [7:0] $end
$var wire 8 *" r1 [7:0] $end
$var wire 8 +" r10 [7:0] $end
$var wire 8 ," r11 [7:0] $end
$var wire 8 -" r2 [7:0] $end
$var wire 8 ." r3 [7:0] $end
$var wire 8 /" r4 [7:0] $end
$var wire 8 0" r5 [7:0] $end
$var wire 8 1" r6 [7:0] $end
$var wire 8 2" r7 [7:0] $end
$var wire 8 3" r8 [7:0] $end
$var wire 8 4" r9 [7:0] $end
$var wire 1 5" rst $end
$var reg 1 6" Href_ant $end
$var reg 1 7" PCLK_ant $end
$var reg 1 8" PCLK_ant2 $end
$var reg 1 9" RAM_flag_reg $end
$var reg 1 :" VSYNC_ant $end
$var reg 12 ;" addr [11:0] $end
$var reg 12 <" addr_sobel [11:0] $end
$var reg 7 =" addru_read0 [6:0] $end
$var reg 7 >" addru_read1 [6:0] $end
$var reg 7 ?" addru_read10 [6:0] $end
$var reg 7 @" addru_read11 [6:0] $end
$var reg 7 A" addru_read2 [6:0] $end
$var reg 7 B" addru_read3 [6:0] $end
$var reg 7 C" addru_read4 [6:0] $end
$var reg 7 D" addru_read5 [6:0] $end
$var reg 7 E" addru_read6 [6:0] $end
$var reg 7 F" addru_read7 [6:0] $end
$var reg 7 G" addru_read8 [6:0] $end
$var reg 7 H" addru_read9 [6:0] $end
$var reg 7 I" addru_write0 [6:0] $end
$var reg 7 J" addru_write1 [6:0] $end
$var reg 7 K" addru_write10 [6:0] $end
$var reg 7 L" addru_write11 [6:0] $end
$var reg 7 M" addru_write2 [6:0] $end
$var reg 7 N" addru_write3 [6:0] $end
$var reg 7 O" addru_write4 [6:0] $end
$var reg 7 P" addru_write5 [6:0] $end
$var reg 7 Q" addru_write6 [6:0] $end
$var reg 7 R" addru_write7 [6:0] $end
$var reg 7 S" addru_write8 [6:0] $end
$var reg 7 T" addru_write9 [6:0] $end
$var reg 3 U" fila [2:0] $end
$var reg 1 V" getting_img $end
$var reg 12 W" outu_rw [11:0] $end
$var reg 8 X" ru0 [7:0] $end
$var reg 8 Y" ru1 [7:0] $end
$var reg 8 Z" ru10 [7:0] $end
$var reg 8 [" ru11 [7:0] $end
$var reg 8 \" ru2 [7:0] $end
$var reg 8 ]" ru3 [7:0] $end
$var reg 8 ^" ru4 [7:0] $end
$var reg 8 _" ru5 [7:0] $end
$var reg 8 `" ru6 [7:0] $end
$var reg 8 a" ru7 [7:0] $end
$var reg 8 b" ru8 [7:0] $end
$var reg 8 c" ru9 [7:0] $end
$var reg 2 d" state [1:0] $end
$var reg 2 e" state_sobel [1:0] $end
$upscope $end
$scope module RAMs $end
$var wire 1 ! Href $end
$var wire 1 # RAM_flag $end
$var wire 1 $ VSYNC $end
$var wire 7 f" addr_read0 [6:0] $end
$var wire 7 g" addr_read1 [6:0] $end
$var wire 7 h" addr_read10 [6:0] $end
$var wire 7 i" addr_read11 [6:0] $end
$var wire 7 j" addr_read2 [6:0] $end
$var wire 7 k" addr_read3 [6:0] $end
$var wire 7 l" addr_read4 [6:0] $end
$var wire 7 m" addr_read5 [6:0] $end
$var wire 7 n" addr_read6 [6:0] $end
$var wire 7 o" addr_read7 [6:0] $end
$var wire 7 p" addr_read8 [6:0] $end
$var wire 7 q" addr_read9 [6:0] $end
$var wire 7 r" addr_write0 [6:0] $end
$var wire 7 s" addr_write1 [6:0] $end
$var wire 7 t" addr_write10 [6:0] $end
$var wire 7 u" addr_write11 [6:0] $end
$var wire 7 v" addr_write2 [6:0] $end
$var wire 7 w" addr_write3 [6:0] $end
$var wire 7 x" addr_write4 [6:0] $end
$var wire 7 y" addr_write5 [6:0] $end
$var wire 7 z" addr_write6 [6:0] $end
$var wire 7 {" addr_write7 [6:0] $end
$var wire 7 |" addr_write8 [6:0] $end
$var wire 7 }" addr_write9 [6:0] $end
$var wire 1 = clk $end
$var wire 12 ~" in_rw [11:0] $end
$var wire 1 @ mask_flag $end
$var wire 8 !# r0 [7:0] $end
$var wire 8 "# r1 [7:0] $end
$var wire 8 ## r10 [7:0] $end
$var wire 8 $# r11 [7:0] $end
$var wire 8 %# r2 [7:0] $end
$var wire 8 &# r3 [7:0] $end
$var wire 8 '# r4 [7:0] $end
$var wire 8 (# r5 [7:0] $end
$var wire 8 )# r6 [7:0] $end
$var wire 8 *# r7 [7:0] $end
$var wire 8 +# r8 [7:0] $end
$var wire 8 ,# r9 [7:0] $end
$var wire 8 -# ro0 [7:0] $end
$var wire 8 .# ro1 [7:0] $end
$var wire 8 /# ro10 [7:0] $end
$var wire 8 0# ro11 [7:0] $end
$var wire 8 1# ro2 [7:0] $end
$var wire 8 2# ro3 [7:0] $end
$var wire 8 3# ro4 [7:0] $end
$var wire 8 4# ro5 [7:0] $end
$var wire 8 5# ro6 [7:0] $end
$var wire 8 6# ro7 [7:0] $end
$var wire 8 7# ro8 [7:0] $end
$var wire 8 8# ro9 [7:0] $end
$var wire 1 5" rst $end
$var reg 1 9# Href_ant $end
$var reg 1 :# VSYNC_ant $end
$var reg 2 ;# first_row [1:0] $end
$var reg 1 <# reg_mask_flag $end
$scope module RAM0 $end
$var wire 7 =# addr_read [6:0] $end
$var wire 7 ># addr_write [6:0] $end
$var wire 1 = clk $end
$var wire 8 ?# data_in [7:0] $end
$var wire 1 @# rw $end
$var reg 8 A# data_out [7:0] $end
$upscope $end
$scope module RAM1 $end
$var wire 7 B# addr_read [6:0] $end
$var wire 7 C# addr_write [6:0] $end
$var wire 1 = clk $end
$var wire 8 D# data_in [7:0] $end
$var wire 1 E# rw $end
$var reg 8 F# data_out [7:0] $end
$upscope $end
$scope module RAM2 $end
$var wire 7 G# addr_read [6:0] $end
$var wire 7 H# addr_write [6:0] $end
$var wire 1 = clk $end
$var wire 8 I# data_in [7:0] $end
$var wire 1 J# rw $end
$var reg 8 K# data_out [7:0] $end
$upscope $end
$scope module RAM3 $end
$var wire 7 L# addr_read [6:0] $end
$var wire 7 M# addr_write [6:0] $end
$var wire 1 = clk $end
$var wire 8 N# data_in [7:0] $end
$var wire 1 O# rw $end
$var reg 8 P# data_out [7:0] $end
$upscope $end
$scope module RAM4 $end
$var wire 7 Q# addr_read [6:0] $end
$var wire 7 R# addr_write [6:0] $end
$var wire 1 = clk $end
$var wire 8 S# data_in [7:0] $end
$var wire 1 T# rw $end
$var reg 8 U# data_out [7:0] $end
$upscope $end
$scope module RAM5 $end
$var wire 7 V# addr_read [6:0] $end
$var wire 7 W# addr_write [6:0] $end
$var wire 1 = clk $end
$var wire 8 X# data_in [7:0] $end
$var wire 1 Y# rw $end
$var reg 8 Z# data_out [7:0] $end
$upscope $end
$scope module RAM6 $end
$var wire 7 [# addr_read [6:0] $end
$var wire 7 \# addr_write [6:0] $end
$var wire 1 = clk $end
$var wire 8 ]# data_in [7:0] $end
$var wire 1 ^# rw $end
$var reg 8 _# data_out [7:0] $end
$upscope $end
$scope module RAM7 $end
$var wire 7 `# addr_read [6:0] $end
$var wire 7 a# addr_write [6:0] $end
$var wire 1 = clk $end
$var wire 8 b# data_in [7:0] $end
$var wire 1 c# rw $end
$var reg 8 d# data_out [7:0] $end
$upscope $end
$scope module RAM8 $end
$var wire 7 e# addr_read [6:0] $end
$var wire 7 f# addr_write [6:0] $end
$var wire 1 = clk $end
$var wire 8 g# data_in [7:0] $end
$var wire 1 h# rw $end
$var reg 8 i# data_out [7:0] $end
$upscope $end
$scope module RAM9 $end
$var wire 7 j# addr_read [6:0] $end
$var wire 7 k# addr_write [6:0] $end
$var wire 1 = clk $end
$var wire 8 l# data_in [7:0] $end
$var wire 1 m# rw $end
$var reg 8 n# data_out [7:0] $end
$upscope $end
$scope module RAM10 $end
$var wire 7 o# addr_read [6:0] $end
$var wire 7 p# addr_write [6:0] $end
$var wire 1 = clk $end
$var wire 8 q# data_in [7:0] $end
$var wire 1 r# rw $end
$var reg 8 s# data_out [7:0] $end
$upscope $end
$scope module RAM11 $end
$var wire 7 t# addr_read [6:0] $end
$var wire 7 u# addr_write [6:0] $end
$var wire 1 = clk $end
$var wire 8 v# data_in [7:0] $end
$var wire 1 w# rw $end
$var reg 8 x# data_out [7:0] $end
$upscope $end
$upscope $end
$scope module mask_control $end
$var wire 1 ! Href $end
$var wire 1 $ VSYNC $end
$var wire 1 = clk $end
$var wire 1 @ mask_flag $end
$var wire 1 5" rst $end
$var wire 1 e sobel_pulse $end
$var reg 1 y# Href_ant $end
$var reg 1 z# VSYNC_ant $end
$var reg 9 {# count_width_row [8:0] $end
$var reg 1 |# first_mask $end
$var reg 4 }# order [3:0] $end
$var reg 2 ~# pos_mask_h [1:0] $end
$var reg 2 !$ pos_mask_v [1:0] $end
$var reg 1 "$ reg_sobel_pulse $end
$upscope $end
$scope module pixel_order $end
$var wire 1 = clk $end
$var wire 4 #$ order [3:0] $end
$var wire 8 $$ p0 [7:0] $end
$var wire 8 %$ p1 [7:0] $end
$var wire 8 &$ p2 [7:0] $end
$var wire 8 '$ p3 [7:0] $end
$var wire 8 ($ p5 [7:0] $end
$var wire 8 )$ p6 [7:0] $end
$var wire 8 *$ p7 [7:0] $end
$var wire 8 +$ p8 [7:0] $end
$var wire 8 ,$ ro0 [7:0] $end
$var wire 8 -$ ro1 [7:0] $end
$var wire 8 .$ ro10 [7:0] $end
$var wire 8 /$ ro11 [7:0] $end
$var wire 8 0$ ro2 [7:0] $end
$var wire 8 1$ ro3 [7:0] $end
$var wire 8 2$ ro4 [7:0] $end
$var wire 8 3$ ro5 [7:0] $end
$var wire 8 4$ ro6 [7:0] $end
$var wire 8 5$ ro7 [7:0] $end
$var wire 8 6$ ro8 [7:0] $end
$var wire 8 7$ ro9 [7:0] $end
$var wire 1 5" rst $end
$var reg 8 8$ ou0 [7:0] $end
$var reg 8 9$ ou1 [7:0] $end
$var reg 8 :$ ou2 [7:0] $end
$var reg 8 ;$ ou3 [7:0] $end
$var reg 8 <$ ou5 [7:0] $end
$var reg 8 =$ ou6 [7:0] $end
$var reg 8 >$ ou7 [7:0] $end
$var reg 8 ?$ ou8 [7:0] $end
$upscope $end
$scope module sobel $end
$var wire 11 @$ abs_gx [10:0] $end
$var wire 11 A$ abs_gy [10:0] $end
$var wire 11 B$ gx [10:0] $end
$var wire 11 C$ gy [10:0] $end
$var wire 8 D$ out [7:0] $end
$var wire 8 E$ p0 [7:0] $end
$var wire 8 F$ p1 [7:0] $end
$var wire 8 G$ p2 [7:0] $end
$var wire 8 H$ p3 [7:0] $end
$var wire 8 I$ p5 [7:0] $end
$var wire 8 J$ p6 [7:0] $end
$var wire 8 K$ p7 [7:0] $end
$var wire 8 L$ p8 [7:0] $end
$var wire 11 M$ sum [10:0] $end
$upscope $end
$scope module control_uart $end
$var wire 1 $ VSYNC $end
$var wire 1 = clk $end
$var wire 8 N$ data [7:0] $end
$var wire 1 e dtr $end
$var wire 1 O$ ready $end
$var wire 1 5" rst $end
$var wire 1 f tx $end
$var reg 1 P$ VSYNC_ant $end
$var reg 5 Q$ car_count [4:0] $end
$var reg 1 R$ cena $end
$var reg 8 S$ data_r [7:0] $end
$var reg 1 T$ new_img $end
$var reg 1 U$ start $end
$var reg 3 V$ state [2:0] $end
$var reg 1 W$ transmit $end
$var reg 1 X$ uart_flag $end
$scope module uart_tx $end
$var wire 1 Y$ baud_en $end
$var wire 1 = clk $end
$var wire 1 Z$ clk_baud $end
$var wire 8 [$ data [7:0] $end
$var wire 1 \$ load $end
$var wire 1 O$ ready $end
$var wire 1 5" rst $end
$var wire 1 ]$ start $end
$var reg 4 ^$ bitc [3:0] $end
$var reg 8 _$ data_r [7:0] $end
$var reg 10 `$ shifter [9:0] $end
$var reg 1 a$ start_r $end
$var reg 2 b$ state [1:0] $end
$var reg 1 c$ tx $end
$scope module BAUD0 $end
$var wire 1 = clk $end
$var wire 1 Y$ clk_ena $end
$var wire 1 Z$ clk_out $end
$var reg 2 d$ divcounter [-1:0] $end
$upscope $end
$upscope $end
$upscope $end
$upscope $end
$upscope $end
$enddefinitions $end
#0
$dumpvars
b0 d$
xc$
bx b$
xa$
bx `$
bx _$
bx ^$
x]$
x\$
bx [$
xZ$
xY$
0X$
xW$
bx V$
xU$
1T$
bx S$
0R$
bx Q$
0P$
xO$
b0 N$
b0 M$
b0 L$
b0 K$
b0 J$
b0 I$
b0 H$
b0 G$
b0 F$
b0 E$
b0 D$
b0 C$
b0 B$
b0 A$
b0 @$
b0 ?$
b0 >$
b0 =$
b0 <$
b0 ;$
b0 :$
b0 9$
b0 8$
bx 7$
bx 6$
bx 5$
bx 4$
bx 3$
bx 2$
bx 1$
bx 0$
bx /$
bx .$
bx -$
bx ,$
b0 +$
b0 *$
b0 )$
b0 ($
b0 '$
b0 &$
b0 %$
b0 $$
bx #$
0"$
b0 !$
b0 ~#
bx }#
1|#
b0 {#
0z#
0y#
bx x#
0w#
b0 v#
b0 u#
b0 t#
bx s#
0r#
b0 q#
b0 p#
b0 o#
bx n#
0m#
b0 l#
b0 k#
b0 j#
bx i#
0h#
b0 g#
b0 f#
b0 e#
bx d#
0c#
b0 b#
b0 a#
b0 `#
bx _#
0^#
b0 ]#
b0 \#
b0 [#
bx Z#
0Y#
b0 X#
b0 W#
b0 V#
bx U#
0T#
b0 S#
b0 R#
b0 Q#
bx P#
0O#
b0 N#
b0 M#
b0 L#
bx K#
0J#
b0 I#
b0 H#
b0 G#
bx F#
0E#
b0 D#
b0 C#
b0 B#
bx A#
0@#
b0 ?#
b0 >#
b0 =#
0<#
b11 ;#
0:#
09#
bx 8#
bx 7#
bx 6#
bx 5#
bx 4#
bx 3#
bx 2#
bx 1#
bx 0#
bx /#
bx .#
bx -#
b0 ,#
b0 +#
b0 *#
b0 )#
b0 (#
b0 '#
b0 &#
b0 %#
b0 $#
b0 ##
b0 "#
b0 !#
b0 ~"
b0 }"
b0 |"
b0 {"
b0 z"
b0 y"
b0 x"
b0 w"
b0 v"
b0 u"
b0 t"
b0 s"
b0 r"
b0 q"
b0 p"
b0 o"
b0 n"
b0 m"
b0 l"
b0 k"
b0 j"
b0 i"
b0 h"
b0 g"
b0 f"
b0 e"
b0 d"
b0 c"
b0 b"
b0 a"
b0 `"
b0 _"
b0 ^"
b0 ]"
b0 \"
b0 ["
b0 Z"
b0 Y"
b0 X"
b0 W"
0V"
b0 U"
b0 T"
b0 S"
b0 R"
b0 Q"
b0 P"
b0 O"
b0 N"
b0 M"
b0 L"
b0 K"
b0 J"
b0 I"
b0 H"
b0 G"
b0 F"
b0 E"
b0 D"
b0 C"
b0 B"
b0 A"
b0 @"
b0 ?"
b0 >"
b0 ="
b0 <"
b0 ;"
0:"
09"
08"
07"
06"
15"
b0 4"
b0 3"
b0 2"
b0 1"
b0 0"
b0 /"
b0 ."
b0 -"
b0 ,"
b0 +"
b0 *"
b0 )"
b0 ("
b0 '"
b0 &"
b0 %"
b0 $"
b0 #"
b0 ""
b0 !"
b0 ~
b0 }
b0 |
b0 {
b0 z
b0 y
b0 x
b0 w
b0 v
b0 u
b0 t
b0 s
b0 r
b0 q
b0 p
b0 o
b0 n
b0 m
0l
1k
0j
0i
0h
0g
xf
0e
1d
bx c
bx b
bx a
bx `
bx _
bx ^
bx ]
bx \
bx [
bx Z
bx Y
bx X
b0 W
b0 V
b0 U
b0 T
b0 S
b0 R
b0 Q
b0 P
b0 O
b0 N
b0 M
b0 L
b0 K
b0 J
b0 I
b0 H
b0 G
b0 F
b0 E
b0 D
b0 C
b0 B
bx A
0@
b0 ?
0>
0=
b0 <
b0 ;
b0 :
b0 9
b0 8
b0 7
b0 6
b0 5
b0 4
b0 3
b0 2
b0 1
b0 0
b0 /
b0 .
b0 -
b0 ,
b0 +
b0 *
b0 )
b0 (
b0 '
b0 &
b0 %
0$
0#
0"
0!
$end
#1
bx B
bx D$
bx N$
bx @$
bx M$
bx A$
0Z$
1@#
1J#
1T#
0\$
0Y$
1O$
b100 U"
b10101 W"
b10101 C
b10101 ("
b10101 ~"
b0 A#
b0 X
b0 -#
b0 ,$
b0 F#
b0 Y
b0 .#
b0 -$
b0 K#
b0 \
b0 1#
b0 0$
b0 P#
b0 ]
b0 2#
b0 1$
b0 U#
b0 ^
b0 3#
b0 2$
b0 Z#
b0 _
b0 4#
b0 3$
b0 _#
b0 `
b0 5#
b0 4$
b0 d#
b0 a
b0 6#
b0 5$
b0 i#
b0 b
b0 7#
b0 6$
b0 n#
b0 c
b0 8#
b0 7$
b0 s#
b0 Z
b0 /#
b0 .$
b0 x#
b0 [
b0 0#
b0 /$
b0 }#
b0 A
b0 #$
bx ?$
bx K
bx +$
bx L$
bx >$
bx J
bx *$
bx K$
bx =$
bx I
bx )$
bx J$
bx <$
bx H
bx ($
bx I$
bx ;$
bx G
bx '$
bx H$
bx :$
bx F
bx &$
bx G$
bx 9$
bx E
bx %$
bx F$
bx 8$
bx B$
bx C$
bx D
bx $$
bx E$
b0 _$
b1111111111 `$
b0 b$
0T$
0W$
b0 V$
0U$
0]$
b1010 S$
b1010 [$
1k
15"
b0 Q$
1>
1=
#2
0>
0=
#3
b0 B
b0 D$
b0 N$
b0 M$
b0 A$
b0 @$
b0 C$
b0 B$
1k
15"
bx S$
bx [$
1c$
1f
0a$
b0 ?$
b0 K
b0 +$
b0 L$
b0 >$
b0 J
b0 *$
b0 K$
b0 =$
b0 I
b0 )$
b0 J$
b0 <$
b0 H
b0 ($
b0 I$
b0 ;$
b0 G
b0 '$
b0 H$
b0 :$
b0 F
b0 &$
b0 G$
b0 9$
b0 E
b0 %$
b0 F$
b0 8$
b0 D
b0 $$
b0 E$
1>
1=
#4
0>
0=
#5
b0 S$
b0 [$
1k
15"
1>
1=
#6
0>
0=
#7
1k
15"
1>
1=
#8
0>
0=
#9
1k
15"
1>
1=
#10
0>
0=
#11
1k
15"
1>
1=
#12
0>
0=
#13
1k
15"
1>
1=
#14
0>
0=
#15
1k
15"
1>
1=
#16
0>
0=
#17
1k
15"
1>
1=
#18
0>
0=
#19
1k
15"
1>
1=
#20
0>
0=
#21
1k
15"
1>
1=
#22
0>
0=
#23
1k
15"
1>
1=
#24
0>
0=
#25
1k
15"
1>
1=
#26
0>
0=
#27
1k
15"
1>
1=
#28
0>
0=
#29
1k
15"
1>
1=
#30
0>
0=
1"
#31
1g
1k
15"
1>
1=
#32
0>
0=
#33
1k
15"
1>
1=
#34
0>
0=
#35
1k
15"
1>
1=
#36
0>
0=
#37
1k
15"
1>
1=
#38
0>
0=
#39
1k
15"
1>
1=
#40
0>
0=
#41
1k
15"
1>
1=
#42
0>
0=
#43
1k
15"
1>
1=
#44
0>
0=
#45
1k
15"
1>
1=
#46
0>
0=
#47
1k
15"
1>
1=
#48
0>
0=
#49
1k
15"
1>
1=
#50
0>
0=
#51
1k
15"
1>
1=
#52
0>
0=
#53
1k
15"
1>
1=
#54
0>
0=
#55
1k
15"
1>
1=
#56
0>
0=
#57
1k
15"
1>
1=
#58
0>
0=
#59
1k
15"
1>
1=
#60
0>
0=
0"
#61
1k
15"
0g
1>
1=
#62
0>
0=
#63
1k
15"
1>
1=
#64
0>
0=
#65
1k
15"
1>
1=
#66
0>
0=
#67
1k
15"
1>
1=
#68
0>
0=
#69
1k
15"
1>
1=
#70
0>
0=
#71
1k
15"
1>
1=
#72
0>
0=
#73
1k
15"
1>
1=
#74
0>
0=
#75
1k
15"
1>
1=
#76
0>
0=
#77
1k
15"
1>
1=
#78
0>
0=
#79
1k
15"
1>
1=
#80
0>
0=
#81
1k
15"
1>
1=
#82
0>
0=
#83
1k
15"
1>
1=
#84
0>
0=
#85
1k
15"
1>
1=
#86
0>
0=
#87
1k
15"
1>
1=
#88
0>
0=
#89
1k
15"
1>
1=
#90
0>
0=
1"
#91
1g
1k
15"
1>
1=
#92
0>
0=
#93
1k
15"
1>
1=
#94
0>
0=
#95
1k
15"
1>
1=
#96
0>
0=
#97
1k
15"
1>
1=
#98
0>
0=
#99
1k
15"
1>
1=
#100
0>
0=
#101
1k
15"
1>
1=
#102
0>
0=
#103
1k
15"
1>
1=
#104
0>
0=
#105
1k
15"
1>
1=
#106
0>
0=
#107
1k
15"
1>
1=
#108
0>
0=
#109
1k
15"
1>
1=
#110
0>
0=
#111
1k
15"
1>
1=
#112
0>
0=
#113
1k
15"
1>
1=
#114
0>
0=
#115
1k
15"
1>
1=
#116
0>
0=
#117
1k
15"
1>
1=
#118
0>
0=
#119
1k
15"
1>
1=
#120
0d
0>
0=
0"
#121
0k
05"
0g
1>
1=
